{
	"additionalNodes": [],
	"additionalParameters": {
		"root": {
			"height": 88,
			"width": 180
		}
	},
	"inputs": [],
	"outputs": [],
	"properties": {
		"A73hoA95yiwt9PnjaDFhO9voeKLyBFV9": {
			"height": 94,
			"title": "store",
			"width": 343,
			"x": 942,
			"y": -618
		},
		"IXc1dcuDjMVlw8QChRfRU4aaMQ3vIn2V": {
			"height": 94,
			"title": "store",
			"width": 198,
			"x": 950,
			"y": -512
		},
		"O5kH2X0LbbY5f3YTtkKvM7RWwH07qLMD": {
			"height": 92,
			"title": "store",
			"width": 379,
			"x": 939,
			"y": -343
		},
		"Opcb9YiKrGYK2aIc0qehfJpHl3MaoIWD": {
			"height": 54,
			"title": "nota_sim_exam.logerFireSmart",
			"width": 261,
			"x": 1066,
			"y": -30
		},
		"Q05wxPC2NIVkMEc5j2aMvknuuHl5S2Ik": {
			"height": 60,
			"title": "sequence",
			"width": 143,
			"x": 671,
			"y": -270
		},
		"TQEWsWfQyfsi0SDqTq5GouZ7ioXERzs8": {
			"height": 98,
			"title": "store",
			"width": 255,
			"x": 950,
			"y": -431
		},
		"XPmjsNwqg63CDZxTRlNZM4lXzN2Db0aj": {
			"height": 54,
			"title": "nota_sim_exam.zeusFire",
			"width": 221,
			"x": 726,
			"y": 102
		},
		"ZZZqZn8gKSNNMkmpMJkJVGXfkNboMUc9": {
			"height": 110,
			"title": "reference",
			"width": 206,
			"x": 948,
			"y": 267
		},
		"cTep6wWF5Zj9fkO7x39voHVdy6IWdqmn": {
			"height": 94,
			"title": "store",
			"width": 343,
			"x": 945,
			"y": -712
		},
		"cqniMvN5pHaKAngx9KWhlJQ6VSxiz9zh": {
			"height": 62,
			"title": "repeat",
			"width": 134,
			"x": 512,
			"y": 108
		},
		"dItFk9iAgQTGgYW601DyTh9WdpovflVP": {
			"height": 72,
			"title": "wait",
			"width": 131,
			"x": 983,
			"y": -155
		},
		"eR2wWSKzWuPwWGmheWvjh03t6loXJA40": {
			"height": 110,
			"title": "reference",
			"width": 286,
			"x": 676,
			"y": -78
		},
		"f3Dzk9n7G2ccJeGjDYrRVSzn4QUrQI5R": {
			"height": 110,
			"title": "reference",
			"width": 233,
			"x": 589,
			"y": -193
		},
		"fLH3sNUfr82nBtYpNCEYd23ABneAMSFh": {
			"height": 94,
			"title": "store",
			"width": 343,
			"x": 937,
			"y": -254
		},
		"gg9KZuSHRaek3PaRc6KICAIsGFehp0oZ": {
			"height": 60,
			"title": "sequence",
			"width": 143,
			"x": 707,
			"y": 173
		},
		"guZI8IbH1VNl78QTjxlVooq23R9GGWIw": {
			"height": 72,
			"title": "wait",
			"width": 131,
			"x": 1162,
			"y": 63
		},
		"kOYuNlwwKnW8GVZrDozQPxDetcAfV9nK": {
			"height": 60,
			"title": "repeat",
			"width": 131,
			"x": 486,
			"y": -255
		},
		"opzUXPRZJb9IJRIqJiguH76TsXkLKB5M": {
			"height": 60,
			"title": "repeat",
			"width": 131,
			"x": 506,
			"y": 55
		},
		"p7A3z0dcf3rsl5L1OUgq9pFaqe42rHGw": {
			"height": 70,
			"title": "parallel",
			"width": 202,
			"x": 251,
			"y": 5
		},
		"y9HcnNfvYgBoRF9Qfo15TlnBauT0Ekxz": {
			"height": 85,
			"title": "wait",
			"width": 155,
			"x": 982,
			"y": 178
		},
		"z27qhj0t6LHUmTDN99PUu9UZxw8wzJOY": {
			"height": 60,
			"title": "sequence",
			"width": 143,
			"x": 888,
			"y": 37
		},
		"zehLXt5y1eKjfgZ35ZQrVEDMA7jaxlA5": {
			"height": 60,
			"title": "repeat",
			"width": 131,
			"x": 527,
			"y": 163
		}
	},
	"roles": [ {
		"categories": [],
		"name": "Role 0"
	} ],
	"root": {
		"children": [ {
			"children": [ {
				"children": [ {
					"children": [],
					"id": "cTep6wWF5Zj9fkO7x39voHVdy6IWdqmn",
					"nodeType": "luaCommand",
					"parameters": [ {
						"name": "var",
						"value": "bb.battleLine"
					}, {
						"name": "value",
						"value": "nota_sim_exam.BattleLine()"
					}, {
						"name": "scriptName",
						"value": "store"
					} ],
					"scriptName": "store"
				}, {
					"children": [],
					"id": "A73hoA95yiwt9PnjaDFhO9voeKLyBFV9",
					"nodeType": "luaCommand",
					"parameters": [ {
						"name": "var",
						"value": "bb.farcks"
					}, {
						"name": "value",
						"value": "nota_sim_exam.GetFarcks()"
					}, {
						"name": "scriptName",
						"value": "store"
					} ],
					"scriptName": "store"
				}, {
					"children": [],
					"id": "IXc1dcuDjMVlw8QChRfRU4aaMQ3vIn2V",
					"nodeType": "luaCommand",
					"parameters": [ {
						"name": "var",
						"value": "bb.mi"
					}, {
						"name": "value",
						"value": "core.MissionInfo()"
					}, {
						"name": "scriptName",
						"value": "store"
					} ],
					"scriptName": "store"
				}, {
					"children": [],
					"id": "TQEWsWfQyfsi0SDqTq5GouZ7ioXERzs8",
					"nodeType": "luaCommand",
					"parameters": [ {
						"name": "var",
						"value": "bb.atlas"
					}, {
						"name": "value",
						"value": "nota_sim_exam.GetAtlas()"
					}, {
						"name": "scriptName",
						"value": "store"
					} ],
					"scriptName": "store"
				}, {
					"children": [],
					"id": "O5kH2X0LbbY5f3YTtkKvM7RWwH07qLMD",
					"nodeType": "luaCommand",
					"parameters": [ {
						"name": "var",
						"value": "bb.upgradeLvl"
					}, {
						"name": "value",
						"value": "bb.mi.battleLines.GoodMiddle.extraSpawnSize"
					}, {
						"name": "scriptName",
						"value": "store"
					} ],
					"scriptName": "store"
				}, {
					"children": [],
					"id": "fLH3sNUfr82nBtYpNCEYd23ABneAMSFh",
					"nodeType": "luaCommand",
					"parameters": [ {
						"name": "var",
						"value": "bb.importantPoints"
					}, {
						"name": "value",
						"value": "nota_sim_exam.PlaceForTower()"
					}, {
						"name": "scriptName",
						"value": "store"
					} ],
					"scriptName": "store"
				}, {
					"children": [],
					"id": "dItFk9iAgQTGgYW601DyTh9WdpovflVP",
					"nodeType": "wait",
					"parameters": [ {
						"name": "time",
						"value": 10
					} ]
				} ],
				"id": "Q05wxPC2NIVkMEc5j2aMvknuuHl5S2Ik",
				"nodeType": "sequence",
				"parameters": []
			} ],
			"id": "kOYuNlwwKnW8GVZrDozQPxDetcAfV9nK",
			"nodeType": "repeat",
			"parameters": []
		}, {
			"children": [],
			"id": "f3Dzk9n7G2ccJeGjDYrRVSzn4QUrQI5R",
			"nodeType": "reference",
			"parameters": [ {
				"name": "behaviourName",
				"value": "nota_sim_exam.Reclaim"
			} ],
			"referenceInputs": [],
			"referenceOutputs": []
		}, {
			"children": [],
			"id": "eR2wWSKzWuPwWGmheWvjh03t6loXJA40",
			"nodeType": "reference",
			"parameters": [ {
				"name": "behaviourName",
				"value": "nota_sim_exam.RadarAndTower"
			} ],
			"referenceInputs": [],
			"referenceOutputs": []
		}, {
			"children": [ {
				"children": [ {
					"children": [],
					"id": "Opcb9YiKrGYK2aIc0qehfJpHl3MaoIWD",
					"nodeType": "luaCommand",
					"parameters": [ {
						"name": "scriptName",
						"value": "nota_sim_exam.logerFireSmart"
					} ],
					"scriptName": "nota_sim_exam.logerFireSmart"
				}, {
					"children": [],
					"id": "guZI8IbH1VNl78QTjxlVooq23R9GGWIw",
					"nodeType": "wait",
					"parameters": [ {
						"name": "time",
						"value": 4
					} ]
				} ],
				"id": "z27qhj0t6LHUmTDN99PUu9UZxw8wzJOY",
				"nodeType": "sequence",
				"parameters": []
			} ],
			"id": "opzUXPRZJb9IJRIqJiguH76TsXkLKB5M",
			"nodeType": "repeat",
			"parameters": []
		}, {
			"children": [ {
				"children": [],
				"id": "XPmjsNwqg63CDZxTRlNZM4lXzN2Db0aj",
				"nodeType": "luaCommand",
				"parameters": [ {
					"name": "scriptName",
					"value": "nota_sim_exam.zeusFire"
				} ],
				"scriptName": "nota_sim_exam.zeusFire"
			} ],
			"id": "cqniMvN5pHaKAngx9KWhlJQ6VSxiz9zh",
			"nodeType": "repeat",
			"parameters": []
		}, {
			"children": [ {
				"children": [ {
					"children": [],
					"id": "y9HcnNfvYgBoRF9Qfo15TlnBauT0Ekxz",
					"nodeType": "wait",
					"parameters": [ {
						"name": "time",
						"value": 2
					} ]
				}, {
					"children": [],
					"id": "ZZZqZn8gKSNNMkmpMJkJVGXfkNboMUc9",
					"nodeType": "reference",
					"parameters": [ {
						"name": "behaviourName",
						"value": "nota_sim_exam.Buy"
					} ],
					"referenceInputs": [],
					"referenceOutputs": []
				} ],
				"id": "gg9KZuSHRaek3PaRc6KICAIsGFehp0oZ",
				"nodeType": "sequence",
				"parameters": []
			} ],
			"id": "zehLXt5y1eKjfgZ35ZQrVEDMA7jaxlA5",
			"nodeType": "repeat",
			"parameters": []
		} ],
		"id": "p7A3z0dcf3rsl5L1OUgq9pFaqe42rHGw",
		"nodeType": "parallel",
		"parameters": [ {
			"name": "mode",
			"value": "all-success"
		} ]
	}
}