{
	"additionalNodes": [],
	"additionalParameters": {
		"root": {
			"height": 130,
			"width": 234
		}
	},
	"inputs": [ {
		"command": "Variable",
		"name": "sharedInfo"
	}, {
		"command": "BETS_UNIT",
		"name": "frackId"
	} ],
	"outputs": [],
	"properties": {
		"YDE0XY6fxdTm5WsBE3BZlfEzGym3LlN9": {
			"height": 110,
			"title": "nota_nep_shared.move",
			"width": 213,
			"x": 791,
			"y": 128
		},
		"akfXEMa5pQ9eM53PZQirfpNKPuoMxiOz": {
			"height": 60,
			"title": "sequence",
			"width": 143,
			"x": 487,
			"y": 27
		},
		"dV0vhq1bhqJ47EPYfJoms4g0aLsfEyDf": {
			"height": 94,
			"title": "store",
			"width": 389,
			"x": 785,
			"y": 27
		},
		"pPbsJEUXxw5c2Aoh7gMlQqS2eIuB2C50": {
			"height": 114,
			"title": "nota_sim_exam.reclaim",
			"width": 248,
			"x": 783,
			"y": 234
		}
	},
	"roles": [ {
		"categories": [],
		"name": "radar"
	} ],
	"root": {
		"children": [ {
			"children": [],
			"id": "dV0vhq1bhqJ47EPYfJoms4g0aLsfEyDf",
			"nodeType": "luaCommand",
			"parameters": [ {
				"name": "var",
				"value": "nextposition"
			}, {
				"name": "value",
				"value": "nota_sim_exam.GetNextTargetPosition(frackId)"
			}, {
				"name": "scriptName",
				"value": "store"
			} ],
			"scriptName": "store"
		}, {
			"children": [],
			"id": "YDE0XY6fxdTm5WsBE3BZlfEzGym3LlN9",
			"nodeType": "luaCommand",
			"parameters": [ {
				"name": "position",
				"value": "nextposition.next"
			}, {
				"name": "units",
				"value": "{frackId}"
			}, {
				"name": "fight",
				"value": "false"
			}, {
				"name": "scriptName",
				"value": "nota_nep_shared.move"
			} ],
			"scriptName": "nota_nep_shared.move"
		}, {
			"children": [],
			"id": "pPbsJEUXxw5c2Aoh7gMlQqS2eIuB2C50",
			"nodeType": "luaCommand",
			"parameters": [ {
				"name": "selectedUnit",
				"value": "frackId"
			}, {
				"name": "fight",
				"value": "false"
			}, {
				"name": "position",
				"value": "nextposition.next"
			}, {
				"name": "scriptName",
				"value": "nota_sim_exam.reclaim"
			} ],
			"scriptName": "nota_sim_exam.reclaim"
		} ],
		"id": "akfXEMa5pQ9eM53PZQirfpNKPuoMxiOz",
		"nodeType": "sequence",
		"parameters": []
	}
}